CPU/tb_CPU.vcd
$date
  Sat Dec  9 22:07:23 2017
$end
$version
  GHDL v0
$end
$timescale
  1 fs
$end
$var reg 1 ! clk $end
$var reg 8 " inst[7:0] $end
$var reg 4 # reg[3:0] $end
$var reg 4 $ num[3:0] $end
$var reg 1 % done $end
$scope module u0 $end
$var reg 1 & clk $end
$var reg 8 ' inst[7:0] $end
$var reg 4 ( reg[3:0] $end
$var reg 4 ) num[3:0] $end
$var reg 1 * done $end
$comment registros is not handled $end
$var integer 32 + estado $end
$var reg 4 , numins[3:0] $end
$upscope $end
$enddefinitions $end
#0
0!
bUUUUUUUU "
bUUUU #
b0000 $
U%
0&
bUUUUUUUU '
bUUUU (
b0000 )
U*
b0 +
b0000 ,
#10000000
1!
b00101000 "
b0000 #
0%
1&
b00101000 '
b0000 (
0*
b1 +
#20000000
0!
0&
#30000000
1!
1&
b10 +
#40000000
0!
0&
#50000000
1!
b00001101 "
b0001 $
1%
1&
b00001101 '
b0001 )
1*
b0 +
b0001 ,
#60000000
0!
0&
#70000000
1!
0%
1&
0*
b1 +
#80000000
0!
0&
#90000000
1!
1&
b10 +
#100000000
0!
0&
#110000000
1!
b10000110 "
b0010 $
1%
1&
b10000110 '
b0010 )
1*
b0 +
b0010 ,
#120000000
0!
0&
#130000000
1!
0%
1&
0*
b100 +
#140000000
0!
0&
#150000000
1!
1&
b101 +
#160000000
0!
0&
#170000000
1!
1&
b110 +
#180000000
0!
0&
#190000000
1!
1&
b10 +
#200000000
0!
0&
#210000000
1!
b0011 $
1%
1&
b0011 )
1*
b0 +
b0011 ,
#220000000
0!
b01100011 "
0&
b01100011 '
#230000000
1!
b1101 #
0%
1&
b1101 (
0*
b11 +
#240000000
0!
0&
#250000000
1!
b0000 #
1&
b0000 (
b10 +
#260000000
0!
0&
#270000000
1!
b11110001 "
b0100 $
1%
1&
b11110001 '
b0100 )
1*
b0 +
b0100 ,
#280000000
0!
0&
#290000000
1!
b1101 #
0%
1&
b1101 (
0*
b100 +
#300000000
0!
0&
#310000000
1!
b1010 #
1&
b1010 (
b101 +
#320000000
0!
0&
#330000000
1!
b1101 #
1&
b1101 (
b110 +
#340000000
0!
0&
#350000000
1!
b0011 #
1&
b0011 (
b10 +
#360000000
0!
0&
#370000000
1!
b0101 $
1%
1&
b0101 )
1*
b0 +
b0101 ,
#380000000
0!
b00101000 "
0&
b00101000 '
#390000000
1!
b1101 #
0%
1&
b1101 (
0*
b1 +
#400000000
0!
0&
#410000000
1!
1&
b10 +
#420000000
0!
b00001101 "
0&
b00001101 '
#430000000
1!
b0110 $
1%
1&
b0110 )
1*
b0 +
b0110 ,
